{
  "swagger" : "2.0",
  "info" : {
    "version" : "1.0",
    "title" : "Summary about the new REST service.",
    "description" : "Summary about the new REST service."
  },
  "host" : "localhost:8080",
  "basePath" : "/",
  "schemes" : [ "http" ],
  "paths" : {
    "/customer/countryDetails" : {
      "get" : {
        "description" : "",
        "operationId" : "get-customer-countryDetails",
        "consumes" : [ "application/json" ],
        "produces" : [ "application/json" ],
        "parameters" : [ {
          "name" : "CountryCode",
          "in" : "query",
          "description" : "",
          "type" : "string",
          "required" : false
        } ],
        "responses" : {
          "200" : {
            "description" : "a CountryDetails to be returned",
            "schema" : {
              "$ref" : "#/definitions/CountryDetails"
            }
          }
        }
      }
    }
  },
  "definitions" : {
    "CountryDetails" : {
      "type" : "object",
      "required" : [ "CountryName", "CurrentTime" ],
      "properties" : {
        "CountryName" : {
          "type" : "array",
          "items" : {
            "type" : "string",
            "uniqueItems" : false
          }
        },
        "CurrentTime" : {
          "type" : "array",
          "items" : {
            "type" : "string",
            "uniqueItems" : false
          }
        }
      }
    }
  }
}